{
  "packages": [
    "button",
    "card",
    "slider",
    "section",
    "container",
    "accordion",
    "slider-images",
    "table-of-contents",
    "map",
    "social-share",
    "social-share-child",
    "posts"
  ],
  "version": "independent"
}
